{
    "valid_username" : "standard_user",
    "valid_password" : "secret_sauce",
    "invalid_username" : "TestName",
    "invalid_password" : "TestPassword",
    "cart_item_list" : 6,
    "checkout_item_list" : 2,
    
    "firstName" : "John",
    "lastName" : "Dave",
    "zipCode" : "SE3GH"
}